<?xml version="1.0" encoding="UTF-8"?>
<svg width="100px" height="100px" viewBox="0 0 100 100" version="1.1" xmlns="http://www.w3.org/2000/svg" xmlns:xlink="http://www.w3.org/1999/xlink">
    <!-- Generator: Sketch 49.3 (51167) - http://www.bohemiancoding.com/sketch -->
    <title>next-js</title>
    <desc>Created with Sketch.</desc>
    <defs></defs>
    <g id="Page-1" stroke="none" stroke-width="1" fill="none" fill-rule="evenodd">
        <g id="next-js" fill="#5F656D" fill-rule="nonzero">
            <path d="M46.7253177,0.0269103574 C46.5102639,0.0464578269 45.826002,0.11487397 45.2101662,0.163742644 C31.0068426,1.4441019 17.7028348,9.10670997 9.27663734,20.8840604 C4.58455523,27.4324627 1.58357771,34.8605011 0.449657869,42.7283576 C0.0488758553,45.4747771 0,46.2859971 0,50.00979 C0,53.733583 0.0488758553,54.544803 0.449657869,57.2912224 C3.16715543,76.066567 16.5298143,91.8413749 34.6529814,97.6860683 C37.8983382,98.7318579 41.3196481,99.4453406 45.2101662,99.8753849 C46.7253177,100.041538 53.2746823,100.041538 54.7898338,99.8753849 C61.5053763,99.132581 67.1945259,97.4710461 72.8054741,94.6073418 C73.6656891,94.1675238 73.8318671,94.050239 73.714565,93.9525016 C73.6363636,93.8938592 69.9706745,88.9776706 65.5718475,83.0352399 L57.5757576,72.2352629 L47.5562072,57.4085073 C42.0430108,49.2572125 37.5073314,42.5915253 37.4682307,42.5915253 C37.42913,42.5817516 37.3900293,49.1692488 37.370479,57.2130326 C37.3411535,71.2969844 37.3313783,71.863861 37.1554252,72.196168 C36.9012708,72.675081 36.7057674,72.8705557 36.2952102,73.0855778 C35.9824047,73.2419576 35.7086999,73.2712788 34.2326491,73.2712788 L32.5415445,73.2712788 L32.0918866,72.9878405 C31.7986315,72.8021395 31.5835777,72.5577962 31.4369501,72.2743579 L31.2316716,71.8345398 L31.2512219,52.2382016 L31.2805474,32.6320896 L31.5835777,32.2509139 C31.7399804,32.0456655 32.0723363,31.7817747 32.3069404,31.6547161 C32.7077224,31.4592414 32.8641251,31.4396939 34.5552297,31.4396939 C36.5493646,31.4396939 36.8817204,31.5178838 37.3998045,32.0847604 C37.5464321,32.2411402 42.971652,40.4119825 49.4623656,50.2541334 C55.9530792,60.0962843 64.8289345,73.5351696 69.1886608,80.1324406 L77.1065494,92.1248132 L77.5073314,91.8609224 C81.0557185,89.554321 84.8093842,86.2703461 87.7810362,82.8495389 C94.1055718,75.587654 98.1818182,66.7326502 99.5503421,57.2912224 C99.9511241,54.544803 100,53.733583 100,50.00979 C100,46.2859971 99.9511241,45.4747771 99.5503421,42.7283576 C96.8328446,23.9530131 83.4701857,8.17820516 65.3470186,2.33351177 C62.1505376,1.29749588 58.7487781,0.58401324 54.9364614,0.15396891 C53.998045,0.0562315617 47.5366569,-0.0512795209 46.7253177,0.0269103574 Z M67.1945259,30.2668458 C67.6637341,30.5014154 68.0449658,30.9510072 68.1818182,31.4201465 C68.2600196,31.6742636 68.2795699,37.1084601 68.2600196,49.3549498 L68.230694,66.9281249 L65.1319648,62.1780898 L62.0234604,57.4280547 L62.0234604,44.6537834 C62.0234604,36.3949775 62.0625611,31.7524535 62.1212121,31.5276576 C62.2776149,30.9803284 62.6197458,30.5502841 63.0889541,30.296167 C63.4897361,30.0909185 63.6363636,30.0713711 65.1710655,30.0713711 C66.6177908,30.0713711 66.8719453,30.0909185 67.1945259,30.2668458 Z" id="Shape"></path>
            <path d="M76.6357181,92.2260478 C76.29721,92.4628597 76.1908217,92.6243224 76.4906432,92.4413314 C76.7034197,92.301397 77.0515995,92.0107642 76.9935695,92 C76.9645545,92 76.8001363,92.1076418 76.6357181,92.2260478 Z M75.9683736,92.7104359 C75.7942837,92.8611344 75.7942837,92.8718986 76.0070602,92.7534926 C76.1231201,92.6889075 76.2198367,92.6135583 76.2198367,92.5920299 C76.2198367,92.5059165 76.1714784,92.5274448 75.9683736,92.7104359 Z M75.4847906,93.0333613 C75.3107007,93.1840598 75.3107007,93.194824 75.5234772,93.076418 C75.6395371,93.0118329 75.7362537,92.9364837 75.7362537,92.9149553 C75.7362537,92.8288419 75.6878954,92.8503702 75.4847906,93.0333613 Z M75.0012076,93.3562867 C74.8271177,93.5069852 74.8271177,93.5177494 75.0398942,93.3993434 C75.1559541,93.3347583 75.2526707,93.2594091 75.2526707,93.2378807 C75.2526707,93.1517673 75.2043124,93.1732956 75.0012076,93.3562867 Z M74.2661614,93.7868539 C73.8986384,94.0021375 73.9179817,94.0882509 74.2855048,93.8837315 C74.449923,93.7868539 74.5756546,93.6899763 74.5756546,93.6684479 C74.5756546,93.5930986 74.5659829,93.6038628 74.2661614,93.7868539 Z" id="Shape"></path>
        </g>
    </g>
</svg>
