{
  "version": 2,
  "name": "redirect",
  "alias": [
    "www.wearebo.co",
    "www.wearebo.studio",
    "wearebo.studio",
    "www.wearebo.dev",
    "wearebo.dev",
    "www.wearebonzer.com",
    "wearebonzer.com"
  ],
  "routes": [
    {
      "src": "/(.*)",
      "status": 301,
      "headers": { "Location": "https://wearebo.co/$1" }
    }
  ]
}
